<?xml version="1.0" encoding="utf-8"?>
<!-- Generator: Adobe Illustrator 22.1.0, SVG Export Plug-In . SVG Version: 6.00 Build 0)  -->
<svg version="1.1" id="Capa_1" xmlns="http://www.w3.org/2000/svg" xmlns:xlink="http://www.w3.org/1999/xlink" x="0px" y="0px"
	 viewBox="0 0 496 496" style="enable-background:new 0 0 496 496;" xml:space="preserve">
<style type="text/css">
	.st0{fill:#F58220;}
</style>
<g>
	<g>
		<g>
			<path class="st0" d="M360,240c0-61.8-50.2-112-112-112s-112,50.2-112,112s50.2,112,112,112S360,301.8,360,240z M248,336
				c-52.9,0-96-43.1-96-96s43.1-96,96-96s96,43.1,96,96S300.9,336,248,336z"/>
			<path class="st0" d="M256,176.4V160h-16v16.4c-18,2-32,17.1-32,35.6c0,19.8,16.2,36,36,36h8c11,0,20,9,20,20s-9,20-20,20h-8
				c-11,0-20-9-20-20v-4h-16v4c0,18.5,14,33.6,32,35.6V320h16v-16.4c18-2,32-17.1,32-35.6c0-19.8-16.2-36-36-36h-8c-11,0-20-9-20-20
				s9-20,20-20h8c11,0,20,9,20,20v4h16v-4C288,193.5,274,178.4,256,176.4z"/>
			<path class="st0" d="M16,64h208v48h16V40c0-22.1-17.9-40-40-40H40C17.9,0,0,17.9,0,40v312h16V64z M16,40c0-13.2,10.8-24,24-24
				h160c13.2,0,24,10.8,24,24v8H16V40z"/>
			<rect x="80" y="400" class="st0" width="80" height="16"/>
			<path class="st0" d="M0,408c0,22.1,17.9,40,40,40h160c22.1,0,40-17.9,40-40v-40H0V408z M16,384h208v24c0,13.2-10.8,24-24,24H40
				c-13.2,0-24-10.8-24-24V384z"/>
			<path class="st0" d="M456,48H296c-22.1,0-40,17.9-40,40v24h8h8h208v288h16V88C496,65.9,478.1,48,456,48z M480,96H272v-8
				c0-13.2,10.8-24,24-24h160c13.2,0,24,10.8,24,24V96z"/>
			<rect x="336" y="448" class="st0" width="80" height="16"/>
			<path class="st0" d="M272,368h-16v88c0,22.1,17.9,40,40,40h160c22.1,0,40-17.9,40-40v-40H272V368z M480,432v24
				c0,13.2-10.8,24-24,24H296c-13.2,0-24-10.8-24-24v-24H480z"/>
			<polygon class="st0" points="376,256 376,272 400,272 400,328 466,240 400,152 400,208 376,208 376,224 416,224 416,200 446,240 
				416,280 416,256 			"/>
			<polygon class="st0" points="120,224 120,208 96,208 96,152 30,240 96,328 96,272 120,272 120,256 80,256 80,280 50,240 80,200 
				80,224 			"/>
			<rect x="384" y="368" class="st0" width="16" height="16"/>
			<rect x="352" y="368" class="st0" width="16" height="16"/>
			<rect x="320" y="368" class="st0" width="16" height="16"/>
			<rect x="160" y="96" class="st0" width="16" height="16"/>
			<rect x="128" y="96" class="st0" width="16" height="16"/>
			<rect x="96" y="96" class="st0" width="16" height="16"/>
		</g>
	</g>
</g>
</svg>
